<svg width="33" height="34" viewBox="0 0 33 34" fill="none" xmlns="http://www.w3.org/2000/svg">
<path d="M32.7047 18.728H7.31562C7.06151 17.9281 6.92654 17.0951 6.91503 16.256C6.91225 15.2071 7.09953 14.1663 7.46784 13.184H21.0356C20.619 10.8693 19.3131 9.71067 17.1179 9.708C16.4139 9.69948 15.7187 9.86526 15.0944 10.1905C14.4702 10.5158 13.9364 10.9904 13.5407 11.572C12.6194 12.8147 12.16 14.4067 12.1627 16.348C12.1627 18.376 12.6033 20.012 13.4926 21.268C13.8689 21.8507 14.3871 22.3285 14.9988 22.6566C15.6104 22.9847 16.2955 23.1524 16.9897 23.144C18.1648 23.144 19.2944 22.56 20.3787 21.392L27.0604 29.392C24.128 31.775 20.4621 33.0748 16.6813 33.072C12.0372 33.072 8.13815 31.5173 4.98421 28.408C1.83027 25.2987 0.25464 21.4467 0.257311 16.852C0.212465 14.6939 0.614104 12.5498 1.4371 10.5538C2.2601 8.55786 3.48674 6.75294 5.04029 5.252C8.22895 2.1 12.1453 0.524002 16.7894 0.524002C21.3294 0.524002 25.1403 2.064 28.2221 5.144C31.304 8.224 32.8462 12.0187 32.8489 16.528C32.8369 17 32.7928 17.728 32.7047 18.728Z" fill="black"/>
</svg>
