<svg width="6" height="11" viewBox="0 0 6 11" fill="none" xmlns="http://www.w3.org/2000/svg">
<path d="M1.27105 0.916V10.996H0.0292435V0.916H1.27105ZM0.722254 0.916H5.81368V2.068H0.722254V0.916ZM0.722254 4.948H5.52927V6.1H0.722254V4.948ZM0.722254 9.844H5.81368V10.996H0.722254V9.844Z" fill="black"/>
</svg>
