<svg width="10" height="12" viewBox="0 0 10 12" fill="none" xmlns="http://www.w3.org/2000/svg">
<path d="M5.27777 5.884H9.96461C9.96974 6.56349 9.86283 7.23919 9.64815 7.884C9.44467 8.49684 9.12659 9.06556 8.71079 9.56C8.29467 10.0534 7.77499 10.4494 7.18856 10.72C6.54382 11.0126 5.84166 11.1575 5.13356 11.144C4.43815 11.1517 3.74803 11.0226 3.1026 10.764C2.48918 10.5178 1.93277 10.1488 1.46772 9.67959C1.00267 9.2104 0.638828 8.65103 0.398647 8.036C-0.114185 6.70075 -0.114185 5.22326 0.398647 3.888C0.641133 3.27179 1.00636 2.71114 1.47221 2.24C1.9349 1.77113 2.49009 1.40336 3.1026 1.16C3.74667 0.894655 4.43682 0.758729 5.13356 0.759999C5.71704 0.754395 6.29795 0.838035 6.85608 1.008C7.36719 1.16055 7.84632 1.40451 8.27014 1.728C8.69812 2.05596 9.05858 2.46344 9.33169 2.928L8.46643 3.728C8.15241 3.19145 7.69271 2.75461 7.14049 2.468C6.52103 2.15256 5.83274 1.99586 5.13756 2.012C4.46635 2.00219 3.80488 2.17307 3.22264 2.5067C2.64041 2.84032 2.15891 3.32438 1.82874 3.908C1.49133 4.5431 1.3149 5.25107 1.3149 5.97C1.3149 6.68893 1.49133 7.39691 1.82874 8.032C2.15773 8.61694 2.63886 9.10227 3.22128 9.43671C3.80371 9.77115 4.46579 9.94228 5.13756 9.932C5.59707 9.93938 6.05422 9.86488 6.48754 9.712C6.86804 9.57089 7.21762 9.35764 7.51704 9.084C7.80407 8.81885 8.04502 8.50796 8.23008 8.164C8.41465 7.8137 8.54947 7.43944 8.63066 7.052H5.27777V5.884Z" fill="black"/>
</svg>
